{
  "project_info": {
    "project_number": "979129037664",
    "firebase_url": "https://smartfood-185509.firebaseio.com",
    "project_id": "smartfood-185509",
    "storage_bucket": "smartfood-185509.appspot.com"
  },
  "client": [
    {
      "client_info": {
        "mobilesdk_app_id": "1:979129037664:android:70b9433814da08aa",
        "android_client_info": {
          "package_name": "com.smartfood"
        }
      },
      "oauth_client": [
        {
          "client_id": "979129037664-psgpfnqadeed0rrf62bl9df5r4ln10k2.apps.googleusercontent.com",
          "client_type": 1,
          "android_info": {
            "package_name": "com.smartfood",
            "certificate_hash": "980e6f876251c3567e16d92fabdd95d0e2a22a99"
          }
        },
        {
          "client_id": "979129037664-2oa9231fb03rom8apsuqgvp7ja4nvsk0.apps.googleusercontent.com",
          "client_type": 3
        }
      ],
      "api_key": [
        {
          "current_key": "AIzaSyBkGMcMpSHGW4Ic3V0kR0-WxIXCRSGPZOo"
        }
      ],
      "services": {
        "analytics_service": {
          "status": 1
        },
        "appinvite_service": {
          "status": 2,
          "other_platform_oauth_client": [
            {
              "client_id": "979129037664-u1dip39it00s0mgnv3tmmo9fn7kc27ko.apps.googleusercontent.com",
              "client_type": 2,
              "ios_info": {
                "bundle_id": "com.Infograins.Smart-Food"
              }
            },
            {
              "client_id": "979129037664-2oa9231fb03rom8apsuqgvp7ja4nvsk0.apps.googleusercontent.com",
              "client_type": 3
            }
          ]
        },
        "ads_service": {
          "status": 2
        }
      }
    },
    {
      "client_info": {
        "mobilesdk_app_id": "1:979129037664:android:41dfc5a0d44a550a",
        "android_client_info": {
          "package_name": "com.yallaseller"
        }
      },
      "oauth_client": [
        {
          "client_id": "979129037664-13e36ib6rkin1bsg0bq45c6lt83hos5e.apps.googleusercontent.com",
          "client_type": 1,
          "android_info": {
            "package_name": "com.yallaseller",
            "certificate_hash": "ec13e1c1d8a96f8d938cadff0fef9c754d11e514"
          }
        },
        {
          "client_id": "979129037664-2oa9231fb03rom8apsuqgvp7ja4nvsk0.apps.googleusercontent.com",
          "client_type": 3
        }
      ],
      "api_key": [
        {
          "current_key": "AIzaSyBkGMcMpSHGW4Ic3V0kR0-WxIXCRSGPZOo"
        }
      ],
      "services": {
        "analytics_service": {
          "status": 1
        },
        "appinvite_service": {
          "status": 2,
          "other_platform_oauth_client": [
            {
              "client_id": "979129037664-u1dip39it00s0mgnv3tmmo9fn7kc27ko.apps.googleusercontent.com",
              "client_type": 2,
              "ios_info": {
                "bundle_id": "com.Infograins.Smart-Food"
              }
            },
            {
              "client_id": "979129037664-2oa9231fb03rom8apsuqgvp7ja4nvsk0.apps.googleusercontent.com",
              "client_type": 3
            }
          ]
        },
        "ads_service": {
          "status": 2
        }
      }
    }
  ],
  "configuration_version": "1"
}